('C:\\Users\\jason\\PycharmProjects\\Ethernet GUI\\Ethernet-controller-test-script\\build\\ethernet\\out00-PKG.pkg',
 {'BINARY': 1,
  'DATA': 1,
  'EXECUTABLE': 1,
  'EXTENSION': 1,
  'PYMODULE': 1,
  'PYSOURCE': 1,
  'PYZ': 0},
 [('out00-PYZ.pyz',
   'C:\\Users\\jason\\PycharmProjects\\Ethernet GUI\\Ethernet-controller-test-script\\build\\ethernet\\out00-PYZ.pyz',
   'PYZ'),
  ('struct', 'F:\\Anaconda\\lib\\struct.pyc', 'PYMODULE'),
  ('pyimod01_os_path',
   'F:\\Anaconda\\lib\\site-packages\\pyinstaller-3.1.1-py2.7.egg\\PyInstaller\\loader\\pyimod01_os_path.pyc',
   'PYMODULE'),
  ('pyimod02_archive',
   'F:\\Anaconda\\lib\\site-packages\\pyinstaller-3.1.1-py2.7.egg\\PyInstaller\\loader\\pyimod02_archive.pyc',
   'PYMODULE'),
  ('pyimod03_importers',
   'F:\\Anaconda\\lib\\site-packages\\pyinstaller-3.1.1-py2.7.egg\\PyInstaller\\loader\\pyimod03_importers.pyc',
   'PYMODULE'),
  ('pyiboot01_bootstrap',
   'F:\\Anaconda\\lib\\site-packages\\pyinstaller-3.1.1-py2.7.egg\\PyInstaller\\loader\\pyiboot01_bootstrap.py',
   'PYSOURCE'),
  ('pyi_rth_qt4plugins',
   'F:\\Anaconda\\lib\\site-packages\\pyinstaller-3.1.1-py2.7.egg\\PyInstaller\\loader\\rthooks\\pyi_rth_qt4plugins.py',
   'PYSOURCE'),
  ('ethernet',
   'C:\\Users\\jason\\PycharmProjects\\Ethernet GUI\\Ethernet-controller-test-script\\ethernet.py',
   'PYSOURCE'),
  (u'Microsoft.VC90.CRT.manifest',
   u'C:\\WINDOWS\\WinSxS\\Manifests\\amd64_microsoft.vc90.crt_1fc8b3b9a1e18e3b_9.0.30729.9158_none_08e47e47a83d53d6.manifest',
   'BINARY'),
  (u'msvcr90.dll',
   u'C:\\WINDOWS\\WinSxS\\amd64_microsoft.vc90.crt_1fc8b3b9a1e18e3b_9.0.30729.9158_none_08e47e47a83d53d6\\msvcr90.dll',
   'BINARY'),
  (u'msvcp90.dll',
   u'C:\\WINDOWS\\WinSxS\\amd64_microsoft.vc90.crt_1fc8b3b9a1e18e3b_9.0.30729.9158_none_08e47e47a83d53d6\\msvcp90.dll',
   'BINARY'),
  (u'msvcm90.dll',
   u'C:\\WINDOWS\\WinSxS\\amd64_microsoft.vc90.crt_1fc8b3b9a1e18e3b_9.0.30729.9158_none_08e47e47a83d53d6\\msvcm90.dll',
   'BINARY'),
  ('python27.dll', 'F:\\Anaconda\\python27.dll', 'BINARY'),
  ('qt4_plugins\\imageformats\\qjpeg4.dll',
   'F:\\Anaconda\\Lib\\site-packages\\PyQt4\\plugins\\imageformats\\qjpeg4.dll',
   'BINARY'),
  ('qt4_plugins\\imageformats\\qico4.dll',
   'F:\\Anaconda\\Lib\\site-packages\\PyQt4\\plugins\\imageformats\\qico4.dll',
   'BINARY'),
  ('qt4_plugins\\codecs\\qkrcodecs4.dll',
   'F:\\Anaconda\\Lib\\site-packages\\PyQt4\\plugins\\codecs\\qkrcodecs4.dll',
   'BINARY'),
  ('qt4_plugins\\imageformats\\qtiff4.dll',
   'F:\\Anaconda\\Lib\\site-packages\\PyQt4\\plugins\\imageformats\\qtiff4.dll',
   'BINARY'),
  ('qt4_plugins\\accessible\\qtaccessiblewidgets4.dll',
   'F:\\Anaconda\\Lib\\site-packages\\PyQt4\\plugins\\accessible\\qtaccessiblewidgets4.dll',
   'BINARY'),
  ('qt4_plugins\\imageformats\\qmng4.dll',
   'F:\\Anaconda\\Lib\\site-packages\\PyQt4\\plugins\\imageformats\\qmng4.dll',
   'BINARY'),
  ('qt4_plugins\\graphicssystems\\qglgraphicssystem4.dll',
   'F:\\Anaconda\\Lib\\site-packages\\PyQt4\\plugins\\graphicssystems\\qglgraphicssystem4.dll',
   'BINARY'),
  ('qt4_plugins\\iconengines\\qsvgicon4.dll',
   'F:\\Anaconda\\Lib\\site-packages\\PyQt4\\plugins\\iconengines\\qsvgicon4.dll',
   'BINARY'),
  ('qt4_plugins\\imageformats\\qsvg4.dll',
   'F:\\Anaconda\\Lib\\site-packages\\PyQt4\\plugins\\imageformats\\qsvg4.dll',
   'BINARY'),
  ('qt4_plugins\\imageformats\\qgif4.dll',
   'F:\\Anaconda\\Lib\\site-packages\\PyQt4\\plugins\\imageformats\\qgif4.dll',
   'BINARY'),
  ('qt4_plugins\\codecs\\qtwcodecs4.dll',
   'F:\\Anaconda\\Lib\\site-packages\\PyQt4\\plugins\\codecs\\qtwcodecs4.dll',
   'BINARY'),
  ('qt4_plugins\\codecs\\qjpcodecs4.dll',
   'F:\\Anaconda\\Lib\\site-packages\\PyQt4\\plugins\\codecs\\qjpcodecs4.dll',
   'BINARY'),
  ('qt4_plugins\\imageformats\\qtga4.dll',
   'F:\\Anaconda\\Lib\\site-packages\\PyQt4\\plugins\\imageformats\\qtga4.dll',
   'BINARY'),
  ('qt4_plugins\\codecs\\qcncodecs4.dll',
   'F:\\Anaconda\\Lib\\site-packages\\PyQt4\\plugins\\codecs\\qcncodecs4.dll',
   'BINARY'),
  ('PyQt4.QtCore',
   'F:\\Anaconda\\lib\\site-packages\\PyQt4\\QtCore.pyd',
   'EXTENSION'),
  ('unicodedata', 'F:\\Anaconda\\DLLs\\unicodedata.pyd', 'EXTENSION'),
  ('bz2', 'F:\\Anaconda\\DLLs\\bz2.pyd', 'EXTENSION'),
  ('_hashlib', 'F:\\Anaconda\\DLLs\\_hashlib.pyd', 'EXTENSION'),
  ('_ctypes', 'F:\\Anaconda\\DLLs\\_ctypes.pyd', 'EXTENSION'),
  ('_ssl', 'F:\\Anaconda\\DLLs\\_ssl.pyd', 'EXTENSION'),
  ('win32evtlog',
   'F:\\Anaconda\\lib\\site-packages\\win32\\win32evtlog.pyd',
   'EXTENSION'),
  ('win32api',
   'F:\\Anaconda\\lib\\site-packages\\win32\\win32api.pyd',
   'EXTENSION'),
  ('select', 'F:\\Anaconda\\DLLs\\select.pyd', 'EXTENSION'),
  ('_socket', 'F:\\Anaconda\\DLLs\\_socket.pyd', 'EXTENSION'),
  ('PySide.QtGui',
   'F:\\Anaconda\\lib\\site-packages\\PySide\\QtGui.pyd',
   'EXTENSION'),
  ('PySide.QtCore',
   'F:\\Anaconda\\lib\\site-packages\\PySide\\QtCore.pyd',
   'EXTENSION'),
  ('PySide.QtNetwork',
   'F:\\Anaconda\\lib\\site-packages\\PySide\\QtNetwork.pyd',
   'EXTENSION'),
  ('QtGui4.dll',
   'F:\\Anaconda\\lib\\site-packages\\PySide\\qtgui4.dll',
   'BINARY'),
  ('QtCore4.dll',
   'F:\\Anaconda\\lib\\site-packages\\PySide\\qtcore4.dll',
   'BINARY'),
  ('QtOpenGL4.dll',
   'F:\\Anaconda\\lib\\site-packages\\PySide\\qtopengl4.dll',
   'BINARY'),
  ('QtSvg4.dll',
   'F:\\Anaconda\\lib\\site-packages\\PySide\\qtsvg4.dll',
   'BINARY'),
  ('QtXml4.dll',
   'F:\\Anaconda\\lib\\site-packages\\PySide\\qtxml4.dll',
   'BINARY'),
  ('pywintypes27.dll',
   'F:\\Anaconda\\lib\\site-packages\\win32\\pywintypes27.dll',
   'BINARY'),
  ('pyside-python2.7.dll',
   'F:\\Anaconda\\lib\\site-packages\\PySide\\pyside-python2.7.dll',
   'BINARY'),
  ('shiboken-python2.7.dll',
   'F:\\Anaconda\\lib\\site-packages\\PySide\\shiboken-python2.7.dll',
   'BINARY'),
  ('QtNetwork4.dll',
   'F:\\Anaconda\\lib\\site-packages\\PySide\\QtNetwork4.dll',
   'BINARY'),
  ('ethernet.exe.manifest',
   'C:\\Users\\jason\\PycharmProjects\\Ethernet GUI\\Ethernet-controller-test-script\\build\\ethernet\\ethernet.exe.manifest',
   'BINARY'),
  ('pyi-windows-manifest-filename ethernet.exe.manifest', '', 'OPTION')],
 False,
 False,
 False)
