(['C:\\Users\\jason\\PycharmProjects\\Ethernet GUI\\Ethernet-controller-test-script\\ethernet.py'],
 ['C:\\Users\\jason\\PycharmProjects\\Ethernet GUI\\Ethernet-controller-test-script',
  'C:\\Users\\jason\\PycharmProjects\\Ethernet GUI\\Ethernet-controller-test-script'],
 ['codecs'],
 [],
 [],
 [],
 False,
 False,
 [('pyi_rth_qt4plugins',
   'F:\\Anaconda\\lib\\site-packages\\pyinstaller-3.1.1-py2.7.egg\\PyInstaller\\loader\\rthooks\\pyi_rth_qt4plugins.py',
   'PYSOURCE'),
  ('ethernet',
   'C:\\Users\\jason\\PycharmProjects\\Ethernet GUI\\Ethernet-controller-test-script\\ethernet.py',
   'PYSOURCE')],
 [('PyQt4',
   'F:\\Anaconda\\lib\\site-packages\\PyQt4\\__init__.py',
   'PYMODULE'),
  ('encodings.aliases',
   'F:\\Anaconda\\lib\\encodings\\aliases.py',
   'PYMODULE'),
  ('encodings', 'F:\\Anaconda\\lib\\encodings\\__init__.py', 'PYMODULE'),
  ('encodings.idna', 'F:\\Anaconda\\lib\\encodings\\idna.py', 'PYMODULE'),
  ('re', 'F:\\Anaconda\\lib\\re.py', 'PYMODULE'),
  ('sre_constants', 'F:\\Anaconda\\lib\\sre_constants.py', 'PYMODULE'),
  ('sre', 'F:\\Anaconda\\lib\\sre.py', 'PYMODULE'),
  ('warnings', 'F:\\Anaconda\\lib\\warnings.py', 'PYMODULE'),
  ('types', 'F:\\Anaconda\\lib\\types.py', 'PYMODULE'),
  ('linecache', 'F:\\Anaconda\\lib\\linecache.py', 'PYMODULE'),
  ('string', 'F:\\Anaconda\\lib\\string.py', 'PYMODULE'),
  ('copy', 'F:\\Anaconda\\lib\\copy.py', 'PYMODULE'),
  ('repr', 'F:\\Anaconda\\lib\\repr.py', 'PYMODULE'),
  ('weakref', 'F:\\Anaconda\\lib\\weakref.py', 'PYMODULE'),
  ('_weakrefset', 'F:\\Anaconda\\lib\\_weakrefset.py', 'PYMODULE'),
  ('UserDict', 'F:\\Anaconda\\lib\\UserDict.py', 'PYMODULE'),
  ('_abcoll', 'F:\\Anaconda\\lib\\_abcoll.py', 'PYMODULE'),
  ('abc', 'F:\\Anaconda\\lib\\abc.py', 'PYMODULE'),
  ('copy_reg', 'F:\\Anaconda\\lib\\copy_reg.py', 'PYMODULE'),
  ('sre_parse', 'F:\\Anaconda\\lib\\sre_parse.py', 'PYMODULE'),
  ('sre_compile', 'F:\\Anaconda\\lib\\sre_compile.py', 'PYMODULE'),
  ('stringprep', 'F:\\Anaconda\\lib\\stringprep.py', 'PYMODULE'),
  ('encodings.mbcs', 'F:\\Anaconda\\lib\\encodings\\mbcs.py', 'PYMODULE'),
  ('encodings.raw_unicode_escape',
   'F:\\Anaconda\\lib\\encodings\\raw_unicode_escape.py',
   'PYMODULE'),
  ('encodings.gb18030',
   'F:\\Anaconda\\lib\\encodings\\gb18030.py',
   'PYMODULE'),
  ('encodings.shift_jisx0213',
   'F:\\Anaconda\\lib\\encodings\\shift_jisx0213.py',
   'PYMODULE'),
  ('encodings.ascii', 'F:\\Anaconda\\lib\\encodings\\ascii.py', 'PYMODULE'),
  ('encodings.cp861', 'F:\\Anaconda\\lib\\encodings\\cp861.py', 'PYMODULE'),
  ('encodings.cp860', 'F:\\Anaconda\\lib\\encodings\\cp860.py', 'PYMODULE'),
  ('encodings.cp863', 'F:\\Anaconda\\lib\\encodings\\cp863.py', 'PYMODULE'),
  ('encodings.cp862', 'F:\\Anaconda\\lib\\encodings\\cp862.py', 'PYMODULE'),
  ('encodings.cp865', 'F:\\Anaconda\\lib\\encodings\\cp865.py', 'PYMODULE'),
  ('encodings.big5hkscs',
   'F:\\Anaconda\\lib\\encodings\\big5hkscs.py',
   'PYMODULE'),
  ('encodings.cp866', 'F:\\Anaconda\\lib\\encodings\\cp866.py', 'PYMODULE'),
  ('encodings.cp869', 'F:\\Anaconda\\lib\\encodings\\cp869.py', 'PYMODULE'),
  ('encodings.mac_latin2',
   'F:\\Anaconda\\lib\\encodings\\mac_latin2.py',
   'PYMODULE'),
  ('encodings.hex_codec',
   'F:\\Anaconda\\lib\\encodings\\hex_codec.py',
   'PYMODULE'),
  ('encodings.cp950', 'F:\\Anaconda\\lib\\encodings\\cp950.py', 'PYMODULE'),
  ('encodings.quopri_codec',
   'F:\\Anaconda\\lib\\encodings\\quopri_codec.py',
   'PYMODULE'),
  ('StringIO', 'F:\\Anaconda\\lib\\StringIO.py', 'PYMODULE'),
  ('quopri', 'F:\\Anaconda\\lib\\quopri.py', 'PYMODULE'),
  ('getopt', 'F:\\Anaconda\\lib\\getopt.py', 'PYMODULE'),
  ('encodings.utf_32_be',
   'F:\\Anaconda\\lib\\encodings\\utf_32_be.py',
   'PYMODULE'),
  ('encodings.string_escape',
   'F:\\Anaconda\\lib\\encodings\\string_escape.py',
   'PYMODULE'),
  ('encodings.cp1250', 'F:\\Anaconda\\lib\\encodings\\cp1250.py', 'PYMODULE'),
  ('encodings.cp1251', 'F:\\Anaconda\\lib\\encodings\\cp1251.py', 'PYMODULE'),
  ('encodings.cp1252', 'F:\\Anaconda\\lib\\encodings\\cp1252.py', 'PYMODULE'),
  ('encodings.cp1253', 'F:\\Anaconda\\lib\\encodings\\cp1253.py', 'PYMODULE'),
  ('encodings.cp1254', 'F:\\Anaconda\\lib\\encodings\\cp1254.py', 'PYMODULE'),
  ('encodings.cp1255', 'F:\\Anaconda\\lib\\encodings\\cp1255.py', 'PYMODULE'),
  ('encodings.cp1256', 'F:\\Anaconda\\lib\\encodings\\cp1256.py', 'PYMODULE'),
  ('encodings.cp1257', 'F:\\Anaconda\\lib\\encodings\\cp1257.py', 'PYMODULE'),
  ('encodings.cp1258', 'F:\\Anaconda\\lib\\encodings\\cp1258.py', 'PYMODULE'),
  ('encodings.euc_jp', 'F:\\Anaconda\\lib\\encodings\\euc_jp.py', 'PYMODULE'),
  ('encodings.hz', 'F:\\Anaconda\\lib\\encodings\\hz.py', 'PYMODULE'),
  ('encodings.mac_cyrillic',
   'F:\\Anaconda\\lib\\encodings\\mac_cyrillic.py',
   'PYMODULE'),
  ('encodings.iso2022_kr',
   'F:\\Anaconda\\lib\\encodings\\iso2022_kr.py',
   'PYMODULE'),
  ('encodings.unicode_internal',
   'F:\\Anaconda\\lib\\encodings\\unicode_internal.py',
   'PYMODULE'),
  ('encodings.cp500', 'F:\\Anaconda\\lib\\encodings\\cp500.py', 'PYMODULE'),
  ('encodings.iso8859_10',
   'F:\\Anaconda\\lib\\encodings\\iso8859_10.py',
   'PYMODULE'),
  ('encodings.iso8859_11',
   'F:\\Anaconda\\lib\\encodings\\iso8859_11.py',
   'PYMODULE'),
  ('encodings.iso8859_13',
   'F:\\Anaconda\\lib\\encodings\\iso8859_13.py',
   'PYMODULE'),
  ('encodings.iso8859_14',
   'F:\\Anaconda\\lib\\encodings\\iso8859_14.py',
   'PYMODULE'),
  ('encodings.cp424', 'F:\\Anaconda\\lib\\encodings\\cp424.py', 'PYMODULE'),
  ('encodings.iso8859_16',
   'F:\\Anaconda\\lib\\encodings\\iso8859_16.py',
   'PYMODULE'),
  ('encodings.cp1006', 'F:\\Anaconda\\lib\\encodings\\cp1006.py', 'PYMODULE'),
  ('encodings.hp_roman8',
   'F:\\Anaconda\\lib\\encodings\\hp_roman8.py',
   'PYMODULE'),
  ('encodings.charmap',
   'F:\\Anaconda\\lib\\encodings\\charmap.py',
   'PYMODULE'),
  ('encodings.utf_32', 'F:\\Anaconda\\lib\\encodings\\utf_32.py', 'PYMODULE'),
  ('encodings.latin_1',
   'F:\\Anaconda\\lib\\encodings\\latin_1.py',
   'PYMODULE'),
  ('encodings.utf_16_be',
   'F:\\Anaconda\\lib\\encodings\\utf_16_be.py',
   'PYMODULE'),
  ('encodings.cp737', 'F:\\Anaconda\\lib\\encodings\\cp737.py', 'PYMODULE'),
  ('encodings.utf_16', 'F:\\Anaconda\\lib\\encodings\\utf_16.py', 'PYMODULE'),
  ('encodings.cp437', 'F:\\Anaconda\\lib\\encodings\\cp437.py', 'PYMODULE'),
  ('encodings.mac_roman',
   'F:\\Anaconda\\lib\\encodings\\mac_roman.py',
   'PYMODULE'),
  ('encodings.mac_centeuro',
   'F:\\Anaconda\\lib\\encodings\\mac_centeuro.py',
   'PYMODULE'),
  ('encodings.mac_croatian',
   'F:\\Anaconda\\lib\\encodings\\mac_croatian.py',
   'PYMODULE'),
  ('encodings.punycode',
   'F:\\Anaconda\\lib\\encodings\\punycode.py',
   'PYMODULE'),
  ('encodings.unicode_escape',
   'F:\\Anaconda\\lib\\encodings\\unicode_escape.py',
   'PYMODULE'),
  ('encodings.bz2_codec',
   'F:\\Anaconda\\lib\\encodings\\bz2_codec.py',
   'PYMODULE'),
  ('encodings.rot_13', 'F:\\Anaconda\\lib\\encodings\\rot_13.py', 'PYMODULE'),
  ('encodings.cp874', 'F:\\Anaconda\\lib\\encodings\\cp874.py', 'PYMODULE'),
  ('encodings.cp875', 'F:\\Anaconda\\lib\\encodings\\cp875.py', 'PYMODULE'),
  ('encodings.cp720', 'F:\\Anaconda\\lib\\encodings\\cp720.py', 'PYMODULE'),
  ('encodings.tis_620',
   'F:\\Anaconda\\lib\\encodings\\tis_620.py',
   'PYMODULE'),
  ('encodings.zlib_codec',
   'F:\\Anaconda\\lib\\encodings\\zlib_codec.py',
   'PYMODULE'),
  ('encodings.iso2022_jp_2004',
   'F:\\Anaconda\\lib\\encodings\\iso2022_jp_2004.py',
   'PYMODULE'),
  ('encodings.euc_jisx0213',
   'F:\\Anaconda\\lib\\encodings\\euc_jisx0213.py',
   'PYMODULE'),
  ('encodings.ptcp154',
   'F:\\Anaconda\\lib\\encodings\\ptcp154.py',
   'PYMODULE'),
  ('encodings.uu_codec',
   'F:\\Anaconda\\lib\\encodings\\uu_codec.py',
   'PYMODULE'),
  ('encodings.utf_16_le',
   'F:\\Anaconda\\lib\\encodings\\utf_16_le.py',
   'PYMODULE'),
  ('encodings.iso2022_jp_2',
   'F:\\Anaconda\\lib\\encodings\\iso2022_jp_2.py',
   'PYMODULE'),
  ('encodings.iso2022_jp_3',
   'F:\\Anaconda\\lib\\encodings\\iso2022_jp_3.py',
   'PYMODULE'),
  ('encodings.iso2022_jp_1',
   'F:\\Anaconda\\lib\\encodings\\iso2022_jp_1.py',
   'PYMODULE'),
  ('encodings.mac_romanian',
   'F:\\Anaconda\\lib\\encodings\\mac_romanian.py',
   'PYMODULE'),
  ('encodings.cp1026', 'F:\\Anaconda\\lib\\encodings\\cp1026.py', 'PYMODULE'),
  ('encodings.mac_farsi',
   'F:\\Anaconda\\lib\\encodings\\mac_farsi.py',
   'PYMODULE'),
  ('encodings.undefined',
   'F:\\Anaconda\\lib\\encodings\\undefined.py',
   'PYMODULE'),
  ('encodings.mac_turkish',
   'F:\\Anaconda\\lib\\encodings\\mac_turkish.py',
   'PYMODULE'),
  ('encodings.koi8_u', 'F:\\Anaconda\\lib\\encodings\\koi8_u.py', 'PYMODULE'),
  ('encodings.koi8_r', 'F:\\Anaconda\\lib\\encodings\\koi8_r.py', 'PYMODULE'),
  ('encodings.utf_8_sig',
   'F:\\Anaconda\\lib\\encodings\\utf_8_sig.py',
   'PYMODULE'),
  ('encodings.iso2022_jp',
   'F:\\Anaconda\\lib\\encodings\\iso2022_jp.py',
   'PYMODULE'),
  ('encodings.palmos', 'F:\\Anaconda\\lib\\encodings\\palmos.py', 'PYMODULE'),
  ('encodings.mac_greek',
   'F:\\Anaconda\\lib\\encodings\\mac_greek.py',
   'PYMODULE'),
  ('encodings.shift_jis_2004',
   'F:\\Anaconda\\lib\\encodings\\shift_jis_2004.py',
   'PYMODULE'),
  ('encodings.gbk', 'F:\\Anaconda\\lib\\encodings\\gbk.py', 'PYMODULE'),
  ('encodings.mac_iceland',
   'F:\\Anaconda\\lib\\encodings\\mac_iceland.py',
   'PYMODULE'),
  ('encodings.cp858', 'F:\\Anaconda\\lib\\encodings\\cp858.py', 'PYMODULE'),
  ('encodings.cp850', 'F:\\Anaconda\\lib\\encodings\\cp850.py', 'PYMODULE'),
  ('encodings.cp852', 'F:\\Anaconda\\lib\\encodings\\cp852.py', 'PYMODULE'),
  ('encodings.cp855', 'F:\\Anaconda\\lib\\encodings\\cp855.py', 'PYMODULE'),
  ('encodings.cp856', 'F:\\Anaconda\\lib\\encodings\\cp856.py', 'PYMODULE'),
  ('encodings.cp857', 'F:\\Anaconda\\lib\\encodings\\cp857.py', 'PYMODULE'),
  ('encodings.iso8859_4',
   'F:\\Anaconda\\lib\\encodings\\iso8859_4.py',
   'PYMODULE'),
  ('encodings.iso8859_5',
   'F:\\Anaconda\\lib\\encodings\\iso8859_5.py',
   'PYMODULE'),
  ('encodings.iso8859_6',
   'F:\\Anaconda\\lib\\encodings\\iso8859_6.py',
   'PYMODULE'),
  ('encodings.iso8859_7',
   'F:\\Anaconda\\lib\\encodings\\iso8859_7.py',
   'PYMODULE'),
  ('encodings.iso8859_1',
   'F:\\Anaconda\\lib\\encodings\\iso8859_1.py',
   'PYMODULE'),
  ('encodings.iso8859_2',
   'F:\\Anaconda\\lib\\encodings\\iso8859_2.py',
   'PYMODULE'),
  ('encodings.iso8859_3',
   'F:\\Anaconda\\lib\\encodings\\iso8859_3.py',
   'PYMODULE'),
  ('encodings.gb2312', 'F:\\Anaconda\\lib\\encodings\\gb2312.py', 'PYMODULE'),
  ('encodings.iso8859_8',
   'F:\\Anaconda\\lib\\encodings\\iso8859_8.py',
   'PYMODULE'),
  ('encodings.iso8859_9',
   'F:\\Anaconda\\lib\\encodings\\iso8859_9.py',
   'PYMODULE'),
  ('encodings.cp949', 'F:\\Anaconda\\lib\\encodings\\cp949.py', 'PYMODULE'),
  ('encodings.cp864', 'F:\\Anaconda\\lib\\encodings\\cp864.py', 'PYMODULE'),
  ('encodings.base64_codec',
   'F:\\Anaconda\\lib\\encodings\\base64_codec.py',
   'PYMODULE'),
  ('base64', 'F:\\Anaconda\\lib\\base64.py', 'PYMODULE'),
  ('encodings.cp037', 'F:\\Anaconda\\lib\\encodings\\cp037.py', 'PYMODULE'),
  ('encodings.utf_8', 'F:\\Anaconda\\lib\\encodings\\utf_8.py', 'PYMODULE'),
  ('encodings.mac_arabic',
   'F:\\Anaconda\\lib\\encodings\\mac_arabic.py',
   'PYMODULE'),
  ('encodings.euc_kr', 'F:\\Anaconda\\lib\\encodings\\euc_kr.py', 'PYMODULE'),
  ('encodings.utf_7', 'F:\\Anaconda\\lib\\encodings\\utf_7.py', 'PYMODULE'),
  ('encodings.shift_jis',
   'F:\\Anaconda\\lib\\encodings\\shift_jis.py',
   'PYMODULE'),
  ('encodings.utf_32_le',
   'F:\\Anaconda\\lib\\encodings\\utf_32_le.py',
   'PYMODULE'),
  ('encodings.euc_jis_2004',
   'F:\\Anaconda\\lib\\encodings\\euc_jis_2004.py',
   'PYMODULE'),
  ('encodings.cp775', 'F:\\Anaconda\\lib\\encodings\\cp775.py', 'PYMODULE'),
  ('encodings.cp1140', 'F:\\Anaconda\\lib\\encodings\\cp1140.py', 'PYMODULE'),
  ('encodings.big5', 'F:\\Anaconda\\lib\\encodings\\big5.py', 'PYMODULE'),
  ('encodings.iso8859_15',
   'F:\\Anaconda\\lib\\encodings\\iso8859_15.py',
   'PYMODULE'),
  ('encodings.iso2022_jp_ext',
   'F:\\Anaconda\\lib\\encodings\\iso2022_jp_ext.py',
   'PYMODULE'),
  ('encodings.johab', 'F:\\Anaconda\\lib\\encodings\\johab.py', 'PYMODULE'),
  ('encodings.cp932', 'F:\\Anaconda\\lib\\encodings\\cp932.py', 'PYMODULE'),
  ('codecs', 'F:\\Anaconda\\lib\\codecs.py', 'PYMODULE'),
  ('os', 'F:\\Anaconda\\lib\\os.py', 'PYMODULE'),
  ('subprocess', 'F:\\Anaconda\\lib\\subprocess.py', 'PYMODULE'),
  ('pickle', 'F:\\Anaconda\\lib\\pickle.py', 'PYMODULE'),
  ('doctest', 'F:\\Anaconda\\lib\\doctest.py', 'PYMODULE'),
  ('collections', 'F:\\Anaconda\\lib\\collections.py', 'PYMODULE'),
  ('dummy_thread', 'F:\\Anaconda\\lib\\dummy_thread.py', 'PYMODULE'),
  ('heapq', 'F:\\Anaconda\\lib\\heapq.py', 'PYMODULE'),
  ('keyword', 'F:\\Anaconda\\lib\\keyword.py', 'PYMODULE'),
  ('tempfile', 'F:\\Anaconda\\lib\\tempfile.py', 'PYMODULE'),
  ('random', 'F:\\Anaconda\\lib\\random.py', 'PYMODULE'),
  ('hashlib', 'F:\\Anaconda\\lib\\hashlib.py', 'PYMODULE'),
  ('logging', 'F:\\Anaconda\\lib\\logging\\__init__.py', 'PYMODULE'),
  ('atexit', 'F:\\Anaconda\\lib\\atexit.py', 'PYMODULE'),
  ('io', 'F:\\Anaconda\\lib\\io.py', 'PYMODULE'),
  ('pdb', 'F:\\Anaconda\\lib\\pdb.py', 'PYMODULE'),
  ('shlex', 'F:\\Anaconda\\lib\\shlex.py', 'PYMODULE'),
  ('readline', 'F:\\Anaconda\\lib\\site-packages\\readline.py', 'PYMODULE'),
  ('pyreadline.console',
   'F:\\Anaconda\\lib\\site-packages\\pyreadline\\console\\__init__.py',
   'PYMODULE'),
  ('pyreadline.console.console',
   'F:\\Anaconda\\lib\\site-packages\\pyreadline\\console\\console.py',
   'PYMODULE'),
  ('pyreadline.console.event',
   'F:\\Anaconda\\lib\\site-packages\\pyreadline\\console\\event.py',
   'PYMODULE'),
  ('ctypes.wintypes', 'F:\\Anaconda\\lib\\ctypes\\wintypes.py', 'PYMODULE'),
  ('ctypes', 'F:\\Anaconda\\lib\\ctypes\\__init__.py', 'PYMODULE'),
  ('ctypes._endian', 'F:\\Anaconda\\lib\\ctypes\\_endian.py', 'PYMODULE'),
  ('ctypes.util', 'F:\\Anaconda\\lib\\ctypes\\util.py', 'PYMODULE'),
  ('ctypes.macholib.dyld',
   'F:\\Anaconda\\lib\\ctypes\\macholib\\dyld.py',
   'PYMODULE'),
  ('ctypes.macholib',
   'F:\\Anaconda\\lib\\ctypes\\macholib\\__init__.py',
   'PYMODULE'),
  ('ctypes.macholib.dylib',
   'F:\\Anaconda\\lib\\ctypes\\macholib\\dylib.py',
   'PYMODULE'),
  ('ctypes.macholib.framework',
   'F:\\Anaconda\\lib\\ctypes\\macholib\\framework.py',
   'PYMODULE'),
  ('pyreadline.console.ansi',
   'F:\\Anaconda\\lib\\site-packages\\pyreadline\\console\\ansi.py',
   'PYMODULE'),
  ('pyreadline.keysyms',
   'F:\\Anaconda\\lib\\site-packages\\pyreadline\\keysyms\\__init__.py',
   'PYMODULE'),
  ('pyreadline.keysyms.keysyms',
   'F:\\Anaconda\\lib\\site-packages\\pyreadline\\keysyms\\keysyms.py',
   'PYMODULE'),
  ('pyreadline.keysyms.common',
   'F:\\Anaconda\\lib\\site-packages\\pyreadline\\keysyms\\common.py',
   'PYMODULE'),
  ('sets', 'F:\\Anaconda\\lib\\sets.py', 'PYMODULE'),
  ('pyreadline.keysyms.ironpython_keysyms',
   'F:\\Anaconda\\lib\\site-packages\\pyreadline\\keysyms\\ironpython_keysyms.py',
   'PYMODULE'),
  ('pyreadline.keysyms.winconstants',
   'F:\\Anaconda\\lib\\site-packages\\pyreadline\\keysyms\\winconstants.py',
   'PYMODULE'),
  ('pyreadline.logger',
   'F:\\Anaconda\\lib\\site-packages\\pyreadline\\logger.py',
   'PYMODULE'),
  ('logging.handlers', 'F:\\Anaconda\\lib\\logging\\handlers.py', 'PYMODULE'),
  ('urllib', 'F:\\Anaconda\\lib\\urllib.py', 'PYMODULE'),
  ('fnmatch', 'F:\\Anaconda\\lib\\fnmatch.py', 'PYMODULE'),
  ('getpass', 'F:\\Anaconda\\lib\\getpass.py', 'PYMODULE'),
  ('ftplib', 'F:\\Anaconda\\lib\\ftplib.py', 'PYMODULE'),
  ('mimetools', 'F:\\Anaconda\\lib\\mimetools.py', 'PYMODULE'),
  ('uu', 'F:\\Anaconda\\lib\\uu.py', 'PYMODULE'),
  ('optparse', 'F:\\Anaconda\\lib\\optparse.py', 'PYMODULE'),
  ('gettext', 'F:\\Anaconda\\lib\\gettext.py', 'PYMODULE'),
  ('tokenize', 'F:\\Anaconda\\lib\\tokenize.py', 'PYMODULE'),
  ('token', 'F:\\Anaconda\\lib\\token.py', 'PYMODULE'),
  ('locale', 'F:\\Anaconda\\lib\\locale.py', 'PYMODULE'),
  ('functools', 'F:\\Anaconda\\lib\\functools.py', 'PYMODULE'),
  ('textwrap', 'F:\\Anaconda\\lib\\textwrap.py', 'PYMODULE'),
  ('rfc822', 'F:\\Anaconda\\lib\\rfc822.py', 'PYMODULE'),
  ('mimetypes', 'F:\\Anaconda\\lib\\mimetypes.py', 'PYMODULE'),
  ('ssl', 'F:\\Anaconda\\lib\\ssl.py', 'PYMODULE'),
  ('calendar', 'F:\\Anaconda\\lib\\calendar.py', 'PYMODULE'),
  ('contextlib', 'F:\\Anaconda\\lib\\contextlib.py', 'PYMODULE'),
  ('nturl2path', 'F:\\Anaconda\\lib\\nturl2path.py', 'PYMODULE'),
  ('urlparse', 'F:\\Anaconda\\lib\\urlparse.py', 'PYMODULE'),
  ('httplib', 'F:\\Anaconda\\lib\\httplib.py', 'PYMODULE'),
  ('win32evtlogutil',
   'F:\\Anaconda\\lib\\site-packages\\win32\\lib\\win32evtlogutil.py',
   'PYMODULE'),
  ('winerror',
   'F:\\Anaconda\\lib\\site-packages\\win32\\lib\\winerror.py',
   'PYMODULE'),
  ('win32con',
   'F:\\Anaconda\\lib\\site-packages\\win32\\lib\\win32con.py',
   'PYMODULE'),
  ('email.utils', 'F:\\Anaconda\\lib\\email\\utils.py', 'PYMODULE'),
  ('email.encoders', 'F:\\Anaconda\\lib\\email\\encoders.py', 'PYMODULE'),
  ('email._parseaddr', 'F:\\Anaconda\\lib\\email\\_parseaddr.py', 'PYMODULE'),
  ('email', 'F:\\Anaconda\\lib\\email\\__init__.py', 'PYMODULE'),
  ('email.mime', 'F:\\Anaconda\\lib\\email\\mime\\__init__.py', 'PYMODULE'),
  ('email.parser', 'F:\\Anaconda\\lib\\email\\parser.py', 'PYMODULE'),
  ('email.feedparser', 'F:\\Anaconda\\lib\\email\\feedparser.py', 'PYMODULE'),
  ('email.message', 'F:\\Anaconda\\lib\\email\\message.py', 'PYMODULE'),
  ('email.iterators', 'F:\\Anaconda\\lib\\email\\iterators.py', 'PYMODULE'),
  ('email.generator', 'F:\\Anaconda\\lib\\email\\generator.py', 'PYMODULE'),
  ('email.header', 'F:\\Anaconda\\lib\\email\\header.py', 'PYMODULE'),
  ('email.base64mime', 'F:\\Anaconda\\lib\\email\\base64mime.py', 'PYMODULE'),
  ('email.quoprimime', 'F:\\Anaconda\\lib\\email\\quoprimime.py', 'PYMODULE'),
  ('email.charset', 'F:\\Anaconda\\lib\\email\\charset.py', 'PYMODULE'),
  ('email.errors', 'F:\\Anaconda\\lib\\email\\errors.py', 'PYMODULE'),
  ('smtplib', 'F:\\Anaconda\\lib\\smtplib.py', 'PYMODULE'),
  ('hmac', 'F:\\Anaconda\\lib\\hmac.py', 'PYMODULE'),
  ('stat', 'F:\\Anaconda\\lib\\stat.py', 'PYMODULE'),
  ('pyreadline.unicode_helper',
   'F:\\Anaconda\\lib\\site-packages\\pyreadline\\unicode_helper.py',
   'PYMODULE'),
  ('pyreadline.py3k_compat',
   'F:\\Anaconda\\lib\\site-packages\\pyreadline\\py3k_compat.py',
   'PYMODULE'),
  ('pyreadline.console.ironpython_console',
   'F:\\Anaconda\\lib\\site-packages\\pyreadline\\console\\ironpython_console.py',
   'PYMODULE'),
  ('pyreadline',
   'F:\\Anaconda\\lib\\site-packages\\pyreadline\\__init__.py',
   'PYMODULE'),
  ('pyreadline.release',
   'F:\\Anaconda\\lib\\site-packages\\pyreadline\\release.py',
   'PYMODULE'),
  ('pyreadline.clipboard',
   'F:\\Anaconda\\lib\\site-packages\\pyreadline\\clipboard\\__init__.py',
   'PYMODULE'),
  ('pyreadline.clipboard.win32_clipboard',
   'F:\\Anaconda\\lib\\site-packages\\pyreadline\\clipboard\\win32_clipboard.py',
   'PYMODULE'),
  ('pyreadline.clipboard.no_clipboard',
   'F:\\Anaconda\\lib\\site-packages\\pyreadline\\clipboard\\no_clipboard.py',
   'PYMODULE'),
  ('pyreadline.clipboard.ironpython_clipboard',
   'F:\\Anaconda\\lib\\site-packages\\pyreadline\\clipboard\\ironpython_clipboard.py',
   'PYMODULE'),
  ('pyreadline.lineeditor',
   'F:\\Anaconda\\lib\\site-packages\\pyreadline\\lineeditor\\__init__.py',
   'PYMODULE'),
  ('pyreadline.lineeditor.wordmatcher',
   'F:\\Anaconda\\lib\\site-packages\\pyreadline\\lineeditor\\wordmatcher.py',
   'PYMODULE'),
  ('pyreadline.modes',
   'F:\\Anaconda\\lib\\site-packages\\pyreadline\\modes\\__init__.py',
   'PYMODULE'),
  ('pyreadline.modes.vi',
   'F:\\Anaconda\\lib\\site-packages\\pyreadline\\modes\\vi.py',
   'PYMODULE'),
  ('pyreadline.lineeditor.history',
   'F:\\Anaconda\\lib\\site-packages\\pyreadline\\lineeditor\\history.py',
   'PYMODULE'),
  ('pyreadline.lineeditor.lineobj',
   'F:\\Anaconda\\lib\\site-packages\\pyreadline\\lineeditor\\lineobj.py',
   'PYMODULE'),
  ('pyreadline.modes.emacs',
   'F:\\Anaconda\\lib\\site-packages\\pyreadline\\modes\\emacs.py',
   'PYMODULE'),
  ('pyreadline.modes.notemacs',
   'F:\\Anaconda\\lib\\site-packages\\pyreadline\\modes\\notemacs.py',
   'PYMODULE'),
  ('pyreadline.modes.basemode',
   'F:\\Anaconda\\lib\\site-packages\\pyreadline\\modes\\basemode.py',
   'PYMODULE'),
  ('pyreadline.error',
   'F:\\Anaconda\\lib\\site-packages\\pyreadline\\error.py',
   'PYMODULE'),
  ('glob', 'F:\\Anaconda\\lib\\glob.py', 'PYMODULE'),
  ('pyreadline.rlmain',
   'F:\\Anaconda\\lib\\site-packages\\pyreadline\\rlmain.py',
   'PYMODULE'),
  ('pprint', 'F:\\Anaconda\\lib\\pprint.py', 'PYMODULE'),
  ('bdb', 'F:\\Anaconda\\lib\\bdb.py', 'PYMODULE'),
  ('cmd', 'F:\\Anaconda\\lib\\cmd.py', 'PYMODULE'),
  ('difflib', 'F:\\Anaconda\\lib\\difflib.py', 'PYMODULE'),
  ('unittest', 'F:\\Anaconda\\lib\\unittest\\__init__.py', 'PYMODULE'),
  ('unittest.signals', 'F:\\Anaconda\\lib\\unittest\\signals.py', 'PYMODULE'),
  ('unittest.main', 'F:\\Anaconda\\lib\\unittest\\main.py', 'PYMODULE'),
  ('unittest.runner', 'F:\\Anaconda\\lib\\unittest\\runner.py', 'PYMODULE'),
  ('unittest.loader', 'F:\\Anaconda\\lib\\unittest\\loader.py', 'PYMODULE'),
  ('unittest.suite', 'F:\\Anaconda\\lib\\unittest\\suite.py', 'PYMODULE'),
  ('unittest.case', 'F:\\Anaconda\\lib\\unittest\\case.py', 'PYMODULE'),
  ('unittest.result', 'F:\\Anaconda\\lib\\unittest\\result.py', 'PYMODULE'),
  ('unittest.util', 'F:\\Anaconda\\lib\\unittest\\util.py', 'PYMODULE'),
  ('inspect', 'F:\\Anaconda\\lib\\inspect.py', 'PYMODULE'),
  ('dis', 'F:\\Anaconda\\lib\\dis.py', 'PYMODULE'),
  ('opcode', 'F:\\Anaconda\\lib\\opcode.py', 'PYMODULE'),
  ('__future__', 'F:\\Anaconda\\lib\\__future__.py', 'PYMODULE'),
  ('threading', 'F:\\Anaconda\\lib\\threading.py', 'PYMODULE'),
  ('_threading_local', 'F:\\Anaconda\\lib\\_threading_local.py', 'PYMODULE'),
  ('traceback', 'F:\\Anaconda\\lib\\traceback.py', 'PYMODULE'),
  ('os2emxpath', 'F:\\Anaconda\\lib\\os2emxpath.py', 'PYMODULE'),
  ('genericpath', 'F:\\Anaconda\\lib\\genericpath.py', 'PYMODULE'),
  ('ntpath', 'F:\\Anaconda\\lib\\ntpath.py', 'PYMODULE'),
  ('posixpath', 'F:\\Anaconda\\lib\\posixpath.py', 'PYMODULE'),
  ('socket', 'F:\\Anaconda\\lib\\socket.py', 'PYMODULE'),
  ('PySide',
   'F:\\Anaconda\\lib\\site-packages\\PySide\\__init__.py',
   'PYMODULE'),
  ('PySide._utils',
   'F:\\Anaconda\\lib\\site-packages\\PySide\\_utils.py',
   'PYMODULE'),
  ('_strptime', 'F:\\Anaconda\\lib\\_strptime.py', 'PYMODULE'),
  ('struct', 'F:\\Anaconda\\lib\\struct.py', 'PYMODULE')],
 [(u'Microsoft.VC90.CRT.manifest',
   u'C:\\WINDOWS\\WinSxS\\Manifests\\amd64_microsoft.vc90.crt_1fc8b3b9a1e18e3b_9.0.30729.9158_none_08e47e47a83d53d6.manifest',
   'BINARY'),
  (u'msvcr90.dll',
   u'C:\\WINDOWS\\WinSxS\\amd64_microsoft.vc90.crt_1fc8b3b9a1e18e3b_9.0.30729.9158_none_08e47e47a83d53d6\\msvcr90.dll',
   'BINARY'),
  (u'msvcp90.dll',
   u'C:\\WINDOWS\\WinSxS\\amd64_microsoft.vc90.crt_1fc8b3b9a1e18e3b_9.0.30729.9158_none_08e47e47a83d53d6\\msvcp90.dll',
   'BINARY'),
  (u'msvcm90.dll',
   u'C:\\WINDOWS\\WinSxS\\amd64_microsoft.vc90.crt_1fc8b3b9a1e18e3b_9.0.30729.9158_none_08e47e47a83d53d6\\msvcm90.dll',
   'BINARY'),
  ('python27.dll', 'F:\\Anaconda\\python27.dll', 'BINARY'),
  ('qt4_plugins\\imageformats\\qjpeg4.dll',
   'F:\\Anaconda\\Lib\\site-packages\\PyQt4\\plugins\\imageformats\\qjpeg4.dll',
   'BINARY'),
  ('qt4_plugins\\imageformats\\qico4.dll',
   'F:\\Anaconda\\Lib\\site-packages\\PyQt4\\plugins\\imageformats\\qico4.dll',
   'BINARY'),
  ('qt4_plugins\\codecs\\qkrcodecs4.dll',
   'F:\\Anaconda\\Lib\\site-packages\\PyQt4\\plugins\\codecs\\qkrcodecs4.dll',
   'BINARY'),
  ('qt4_plugins\\imageformats\\qtiff4.dll',
   'F:\\Anaconda\\Lib\\site-packages\\PyQt4\\plugins\\imageformats\\qtiff4.dll',
   'BINARY'),
  ('qt4_plugins\\accessible\\qtaccessiblewidgets4.dll',
   'F:\\Anaconda\\Lib\\site-packages\\PyQt4\\plugins\\accessible\\qtaccessiblewidgets4.dll',
   'BINARY'),
  ('qt4_plugins\\imageformats\\qmng4.dll',
   'F:\\Anaconda\\Lib\\site-packages\\PyQt4\\plugins\\imageformats\\qmng4.dll',
   'BINARY'),
  ('qt4_plugins\\graphicssystems\\qglgraphicssystem4.dll',
   'F:\\Anaconda\\Lib\\site-packages\\PyQt4\\plugins\\graphicssystems\\qglgraphicssystem4.dll',
   'BINARY'),
  ('qt4_plugins\\iconengines\\qsvgicon4.dll',
   'F:\\Anaconda\\Lib\\site-packages\\PyQt4\\plugins\\iconengines\\qsvgicon4.dll',
   'BINARY'),
  ('qt4_plugins\\imageformats\\qsvg4.dll',
   'F:\\Anaconda\\Lib\\site-packages\\PyQt4\\plugins\\imageformats\\qsvg4.dll',
   'BINARY'),
  ('qt4_plugins\\imageformats\\qgif4.dll',
   'F:\\Anaconda\\Lib\\site-packages\\PyQt4\\plugins\\imageformats\\qgif4.dll',
   'BINARY'),
  ('qt4_plugins\\codecs\\qtwcodecs4.dll',
   'F:\\Anaconda\\Lib\\site-packages\\PyQt4\\plugins\\codecs\\qtwcodecs4.dll',
   'BINARY'),
  ('qt4_plugins\\codecs\\qjpcodecs4.dll',
   'F:\\Anaconda\\Lib\\site-packages\\PyQt4\\plugins\\codecs\\qjpcodecs4.dll',
   'BINARY'),
  ('qt4_plugins\\imageformats\\qtga4.dll',
   'F:\\Anaconda\\Lib\\site-packages\\PyQt4\\plugins\\imageformats\\qtga4.dll',
   'BINARY'),
  ('qt4_plugins\\codecs\\qcncodecs4.dll',
   'F:\\Anaconda\\Lib\\site-packages\\PyQt4\\plugins\\codecs\\qcncodecs4.dll',
   'BINARY'),
  ('PyQt4.QtCore',
   'F:\\Anaconda\\lib\\site-packages\\PyQt4\\QtCore.pyd',
   'EXTENSION'),
  ('unicodedata', 'F:\\Anaconda\\DLLs\\unicodedata.pyd', 'EXTENSION'),
  ('bz2', 'F:\\Anaconda\\DLLs\\bz2.pyd', 'EXTENSION'),
  ('_hashlib', 'F:\\Anaconda\\DLLs\\_hashlib.pyd', 'EXTENSION'),
  ('_ctypes', 'F:\\Anaconda\\DLLs\\_ctypes.pyd', 'EXTENSION'),
  ('_ssl', 'F:\\Anaconda\\DLLs\\_ssl.pyd', 'EXTENSION'),
  ('win32evtlog',
   'F:\\Anaconda\\lib\\site-packages\\win32\\win32evtlog.pyd',
   'EXTENSION'),
  ('win32api',
   'F:\\Anaconda\\lib\\site-packages\\win32\\win32api.pyd',
   'EXTENSION'),
  ('select', 'F:\\Anaconda\\DLLs\\select.pyd', 'EXTENSION'),
  ('_socket', 'F:\\Anaconda\\DLLs\\_socket.pyd', 'EXTENSION'),
  ('PySide.QtGui',
   'F:\\Anaconda\\lib\\site-packages\\PySide\\QtGui.pyd',
   'EXTENSION'),
  ('PySide.QtCore',
   'F:\\Anaconda\\lib\\site-packages\\PySide\\QtCore.pyd',
   'EXTENSION'),
  ('PySide.QtNetwork',
   'F:\\Anaconda\\lib\\site-packages\\PySide\\QtNetwork.pyd',
   'EXTENSION'),
  ('QtGui4.dll',
   'F:\\Anaconda\\lib\\site-packages\\PySide\\qtgui4.dll',
   'BINARY'),
  ('QtCore4.dll',
   'F:\\Anaconda\\lib\\site-packages\\PySide\\qtcore4.dll',
   'BINARY'),
  ('QtOpenGL4.dll',
   'F:\\Anaconda\\lib\\site-packages\\PySide\\qtopengl4.dll',
   'BINARY'),
  ('QtSvg4.dll',
   'F:\\Anaconda\\lib\\site-packages\\PySide\\qtsvg4.dll',
   'BINARY'),
  ('QtXml4.dll',
   'F:\\Anaconda\\lib\\site-packages\\PySide\\qtxml4.dll',
   'BINARY'),
  ('pywintypes27.dll',
   'F:\\Anaconda\\lib\\site-packages\\win32\\pywintypes27.dll',
   'BINARY'),
  ('pyside-python2.7.dll',
   'F:\\Anaconda\\lib\\site-packages\\PySide\\pyside-python2.7.dll',
   'BINARY'),
  ('shiboken-python2.7.dll',
   'F:\\Anaconda\\lib\\site-packages\\PySide\\shiboken-python2.7.dll',
   'BINARY'),
  ('QtNetwork4.dll',
   'F:\\Anaconda\\lib\\site-packages\\PySide\\QtNetwork4.dll',
   'BINARY')],
 [],
 [],
 [],
 [BindingRedirect(name=u'Microsoft.VC90.CRT', language=None, arch=u'amd64', oldVersion=(9, 0, 21022, 8), newVersion=(9, 0, 30729, 9158), publicKeyToken=u'1fc8b3b9a1e18e3b')])
